<?xml version="1.0" encoding="UTF-8" standalone="no"?>
<!-- Created with Inkscape (http://www.inkscape.org/) -->

<svg
   xmlns:dc="http://purl.org/dc/elements/1.1/"
   xmlns:cc="http://creativecommons.org/ns#"
   xmlns:rdf="http://www.w3.org/1999/02/22-rdf-syntax-ns#"
   xmlns:svg="http://www.w3.org/2000/svg"
   xmlns="http://www.w3.org/2000/svg"
   xmlns:xlink="http://www.w3.org/1999/xlink"
   xmlns:sodipodi="http://sodipodi.sourceforge.net/DTD/sodipodi-0.dtd"
   xmlns:inkscape="http://www.inkscape.org/namespaces/inkscape"
   width="50"
   height="50"
   viewBox="0 0 13.229167 13.229167"
   version="1.1"
   id="svg6950"
   inkscape:version="0.92.1 r15371"
   sodipodi:docname="Coelho.svg">
  <defs
     id="defs6944">
    <linearGradient
       inkscape:collect="always"
       xlink:href="#linearGradient4594"
       id="linearGradient4755"
       gradientUnits="userSpaceOnUse"
       x1="2.5737858"
       y1="248.54816"
       x2="37.62339"
       y2="248.54816" />
    <linearGradient
       inkscape:collect="always"
       id="linearGradient4594">
      <stop
         style="stop-color:#d3d3d3;stop-opacity:1"
         offset="0"
         id="stop4590" />
      <stop
         style="stop-color:#afafaf;stop-opacity:1"
         offset="1"
         id="stop4592" />
    </linearGradient>
  </defs>
  <sodipodi:namedview
     id="base"
     pagecolor="#ffffff"
     bordercolor="#666666"
     borderopacity="1.0"
     inkscape:pageopacity="0.0"
     inkscape:pageshadow="2"
     inkscape:zoom="1.8950462"
     inkscape:cx="-67.862534"
     inkscape:cy="32.768956"
     inkscape:document-units="px"
     inkscape:current-layer="g4753"
     showgrid="true"
     inkscape:window-width="1366"
     inkscape:window-height="705"
     inkscape:window-x="-8"
     inkscape:window-y="-8"
     inkscape:window-maximized="1"
     units="px"
     inkscape:snap-smooth-nodes="true">
    <inkscape:grid
       type="xygrid"
       id="grid5863" />
  </sodipodi:namedview>
  <metadata
     id="metadata6947">
    <rdf:RDF>
      <cc:Work
         rdf:about="">
        <dc:format>image/svg+xml</dc:format>
        <dc:type
           rdf:resource="http://purl.org/dc/dcmitype/StillImage" />
        <dc:title></dc:title>
      </cc:Work>
    </rdf:RDF>
  </metadata>
  <g
     inkscape:label="Layer 1"
     inkscape:groupmode="layer"
     id="layer1"
     transform="translate(0,-283.77083)">
    <g
       id="g4753"
       style="display:inline;fill:url(#linearGradient4755);fill-opacity:1"
       transform="matrix(0.73926878,0,0,0.73926878,-6.0992996,97.412593)">
      <path
         sodipodi:nodetypes="cscc"
         inkscape:connector-curvature="0"
         id="path4743"
         d="m 19.314583,256.25415 c -0.561883,-0.0822 1.970327,-3.51208 4.497917,-2.91042 1.061255,0.25262 1.058333,1.5875 0,0.79375 -1.800803,-0.7588 -4.205847,2.66948 -3.96875,2.91042"
         style="fill:#d1c6b6;fill-opacity:1;stroke:#000000;stroke-width:0.26458332px;stroke-linecap:butt;stroke-linejoin:miter;stroke-opacity:1" />
      <path
         sodipodi:nodetypes="caasc"
         inkscape:connector-curvature="0"
         id="path4716"
         d="m 15.398813,255.95066 c -0.706187,-1.00292 -1.56667,-0.66935 -2.290022,-0.39262 -1.179355,0.45117 -2.425725,1.70807 -2.353051,2.96869 0.01942,0.33687 0.642459,1.22201 0.715798,0.71579 0.162645,-1.12264 2.8934,-3.78601 3.345129,-2.4592"
         style="fill:#d1c6b6;fill-opacity:1;stroke:#000000;stroke-width:0.26458332px;stroke-linecap:butt;stroke-linejoin:miter;stroke-opacity:1" />
      <ellipse
         style="opacity:1;vector-effect:none;fill:#d1c6b6;fill-opacity:1;fill-rule:nonzero;stroke:#161616;stroke-width:0.32671535px;stroke-linecap:butt;stroke-linejoin:miter;stroke-miterlimit:4;stroke-dasharray:none;stroke-dashoffset:0;stroke-opacity:1"
         id="path5916"
         cx="17.197916"
         cy="265.50574"
         rx="3.5789881"
         ry="4.473732" />
      <ellipse
         ry="3.7041593"
         rx="3.3072915"
         cy="259.16458"
         cx="17.197916"
         id="path4678"
         style="opacity:1;vector-effect:none;fill:#d1c6b6;fill-opacity:1;fill-rule:nonzero;stroke:#212121;stroke-width:0.35789871;stroke-linecap:butt;stroke-linejoin:miter;stroke-miterlimit:4;stroke-dasharray:none;stroke-dashoffset:0;stroke-opacity:1" />
      <path
         sodipodi:nodetypes="ccc"
         inkscape:connector-curvature="0"
         id="path4661"
         d="m 15.875,261.28123 c 0,2.11667 1.322917,2.11667 1.322916,0 1e-6,2.11667 1.322917,2.11667 1.322917,0"
         style="fill:#ffffff;fill-opacity:1;stroke:#000000;stroke-width:0.26458332px;stroke-linecap:butt;stroke-linejoin:miter;stroke-opacity:1" />
      <path
         sodipodi:nodetypes="ccc"
         inkscape:connector-curvature="0"
         id="path4663"
         d="m 15.345833,260.75207 c 0.529167,1.05833 1.322918,1.05833 1.852084,0.52916 0.529167,0.52917 1.322916,0.52917 1.852083,-0.52916"
         style="fill:#d1c6b6;fill-opacity:1;stroke:#000000;stroke-width:0.26458332px;stroke-linecap:butt;stroke-linejoin:miter;stroke-opacity:1" />
      <path
         sodipodi:nodetypes="cccc"
         inkscape:connector-curvature="0"
         id="path4689"
         d="m 16.66875,259.16457 0.529167,0.79375 0.529166,-0.79375 z"
         style="fill:#ffc1e0;fill-opacity:1;stroke:#000000;stroke-width:0.26458332px;stroke-linecap:butt;stroke-linejoin:miter;stroke-opacity:1" />
      <ellipse
         ry="0.66145068"
         rx="0.39687499"
         cx="15.875"
         cy="257.70935"
         id="path4699"
         style="opacity:1;vector-effect:none;fill:#fffbfd;fill-opacity:1;fill-rule:nonzero;stroke:#000000;stroke-width:0.26458332px;stroke-linecap:butt;stroke-linejoin:miter;stroke-miterlimit:4;stroke-dasharray:none;stroke-dashoffset:0;stroke-opacity:1" />
      <ellipse
         ry="0.66145068"
         rx="0.39687499"
         cy="257.70935"
         cx="18.520834"
         id="path4699-3"
         style="display:inline;opacity:1;vector-effect:none;fill:#fffbfd;fill-opacity:1;fill-rule:nonzero;stroke:#000000;stroke-width:0.26458332px;stroke-linecap:butt;stroke-linejoin:miter;stroke-miterlimit:4;stroke-dasharray:none;stroke-dashoffset:0;stroke-opacity:1" />
      <path
         style="fill:#d1c6b6;fill-opacity:1;stroke:#000000;stroke-width:0.35789871px;stroke-linecap:butt;stroke-linejoin:miter;stroke-opacity:1"
         d="m 15.050524,264.611 c 0,0 0.357899,0 -1.789493,-0.35789 -2.147393,-0.3579 0.357898,4.29478 0.357898,4.29478 h -1.073696 c -1.431595,0 -1.431595,1.4316 -1.431595,1.4316 l 3.578987,-10e-6 c 0,0 0,-1.78949 0,-1.78949"
         id="path5918"
         inkscape:connector-curvature="0"
         sodipodi:nodetypes="ccsccc" />
      <path
         style="fill:#d1c6b6;fill-opacity:1;stroke:#000000;stroke-width:0.35789871px;stroke-linecap:butt;stroke-linejoin:miter;stroke-opacity:1"
         d="m 13.976829,263.53731 v 4.65268 c 0,0.3579 0.357898,0.7158 0.715797,0.7158 0.357899,0 0.715797,-0.3579 0.715798,-0.7158 l -10e-7,-4.65268"
         id="path5920"
         inkscape:connector-curvature="0"
         sodipodi:nodetypes="ccccc" />
      <path
         sodipodi:nodetypes="ccsccc"
         inkscape:connector-curvature="0"
         id="path5922"
         d="m 19.345309,264.611 c 0,0 -0.357899,0 1.789493,-0.35789 2.147393,-0.3579 -0.357898,4.29478 -0.357898,4.29478 H 21.8506 c 1.431595,0 1.431595,1.4316 1.431595,1.4316 l -3.578987,-10e-6 c 0,0 0,-1.78949 0,-1.78949"
         style="fill:#d1c6b6;fill-opacity:1;stroke:#000000;stroke-width:0.35789871px;stroke-linecap:butt;stroke-linejoin:miter;stroke-opacity:1" />
      <path
         sodipodi:nodetypes="ccccc"
         inkscape:connector-curvature="0"
         id="path5942"
         d="m 18.987411,263.53731 v 4.65268 c 0,0.3579 0.357898,0.7158 0.715797,0.7158 0.357899,0 0.715797,-0.3579 0.715798,-0.7158 l -1e-6,-4.65268"
         style="fill:#d1c6b6;fill-opacity:1;stroke:#000000;stroke-width:0.35789871px;stroke-linecap:butt;stroke-linejoin:miter;stroke-opacity:1" />
    </g>
  </g>
</svg>
